{
  "page": {
    "pageNumber": 0,
    "pageSize": 50,
    "numberOfElements": 50,
    "totalElements": 78,
    "totalPages": 2,
    "firstPage": true,
    "lastPage": false
  },
  "sort": { "clauses": [] },
  "characters": [
    {
      "uid": "CHMA0000206844",
      "name": "Data",
      "gender": "male",
      "yearOfBirth": null,
      "monthOfBirth": null,
      "dayOfBirth": null,
      "placeOfBirth": null,
      "yearOfDeath": null,
      "monthOfDeath": null,
      "dayOfDeath": null,
      "placeOfDeath": null,
      "height": null,
      "weight": null,
      "deceased": null,
      "bloodType": null,
      "maritalStatus": null,
      "serialNumber": null,
      "hologramActivationDate": null,
      "hologramStatus": null,
      "hologramDateStatus": null,
      "hologram": false,
      "fictionalCharacter": true,
      "mirror": false,
      "alternateReality": false
    },
  
    {
      "uid": "CHMA0000054164",
      "name": "Paul de Witt",
      "gender": "male",
      "yearOfBirth": "1981",
      "monthOfBirth": null,
      "dayOfBirth": null,
      "placeOfBirth": null,
      "yearOfDeath": null,
      "monthOfDeath": null,
      "dayOfDeath": null,
      "placeOfDeath": null,
      "height": null,
      "weight": null,
      "deceased": null,
      "bloodType": null,
      "maritalStatus": null,
      "serialNumber": null,
      "hologramActivationDate": null,
      "hologramStatus": null,
      "hologramDateStatus": null,
      "hologram": false,
      "fictionalCharacter": false,
      "mirror": false,
      "alternateReality": false
    },
    {
      "uid": "CHMA0000040793",
      "name": "Another Stub Person",
      "gender": "female",
      "yearOfBirth": "2300",
      "monthOfBirth": null,
      "dayOfBirth": null,
      "placeOfBirth": null,
      "yearOfDeath": null,
      "monthOfDeath": null,
      "dayOfDeath": null,
      "placeOfDeath": null,
      "height": null,
      "weight": null,
      "deceased": null,
      "bloodType": null,
      "maritalStatus": null,
      "serialNumber": null,
      "hologramActivationDate": null,
      "hologramStatus": null,
      "hologramDateStatus": null,
      "hologram": false,
      "fictionalCharacter": false,
      "mirror": false,
      "alternateReality": false
    },
    {
      "uid": "CHMA0000034579",
      "name": "Campio",
      "gender": null,
      "yearOfBirth": null,
      "monthOfBirth": null,
      "dayOfBirth": null,
      "placeOfBirth": null,
      "yearOfDeath": null,
      "monthOfDeath": null,
      "dayOfDeath": null,
      "placeOfDeath": null,
      "height": null,
      "weight": null,
      "deceased": null,
      "bloodType": null,
      "maritalStatus": null,
      "serialNumber": null,
      "hologramActivationDate": null,
      "hologramStatus": null,
      "hologramDateStatus": null,
      "hologram": false,
      "fictionalCharacter": false,
      "mirror": false,
      "alternateReality": false
    },
    {
      "uid": "CHMA0000110567",
      "name": "R. Picardo",
      "gender": null,
      "yearOfBirth": null,
      "monthOfBirth": null,
      "dayOfBirth": null,
      "placeOfBirth": null,
      "yearOfDeath": null,
      "monthOfDeath": null,
      "dayOfDeath": null,
      "placeOfDeath": null,
      "height": null,
      "weight": null,
      "deceased": null,
      "bloodType": null,
      "maritalStatus": null,
      "serialNumber": null,
      "hologramActivationDate": null,
      "hologramStatus": null,
      "hologramDateStatus": null,
      "hologram": false,
      "fictionalCharacter": false,
      "mirror": false,
      "alternateReality": false
    },
    {
      "uid": "CHMA0000039811",
      "name": "Piri",
      "gender": null,
      "yearOfBirth": 2359,
      "monthOfBirth": null,
      "dayOfBirth": null,
      "placeOfBirth": null,
      "yearOfDeath": null,
      "monthOfDeath": null,
      "dayOfDeath": null,
      "placeOfDeath": null,
      "height": null,
      "weight": null,
      "deceased": null,
      "bloodType": null,
      "maritalStatus": null,
      "serialNumber": null,
      "hologramActivationDate": null,
      "hologramStatus": null,
      "hologramDateStatus": null,
      "hologram": false,
      "fictionalCharacter": false,
      "mirror": false,
      "alternateReality": false
    },
    {
      "uid": "CHMA0000016237",
      "name": "Gillespie",
      "gender": null,
      "yearOfBirth": null,
      "monthOfBirth": null,
      "dayOfBirth": null,
      "placeOfBirth": null,
      "yearOfDeath": null,
      "monthOfDeath": null,
      "dayOfDeath": null,
      "placeOfDeath": null,
      "height": null,
      "weight": null,
      "deceased": null,
      "bloodType": null,
      "maritalStatus": null,
      "serialNumber": null,
      "hologramActivationDate": null,
      "hologramStatus": null,
      "hologramDateStatus": null,
      "hologram": false,
      "fictionalCharacter": false,
      "mirror": false,
      "alternateReality": false
    }
  ]
}
